; Target
target triple = "x86_64-apple-macosx10.14.0"
; External declaration of the printf function
declare i32 @printf(i8* noalias nocapture, ...)

; Actual code begins

@.fmt2 = global [5 x i8] c"titi\00"
@.fmt1 = global [5 x i8] c"toto\00"
define i32 @main()
{
	call i32 (i8*, ...) @printf(i8* getelementptr inbounds ([5 x i8], [5 x i8 ]* @.fmt1 , i64 0, i64 0))
	call i32 (i8*, ...) @printf(i8* getelementptr inbounds ([5 x i8], [5 x i8 ]* @.fmt2 , i64 0, i64 0))
	ret i32 0
}

