; Target
target triple = "x86_64-apple-macosx10.14.0"
; External declaration of the printf function
declare i32 @scanf(i8* noalias nocapture, ... )
declare i32 @printf(i8* noalias nocapture, ...)

; Actual code begins

@.fmt2 = global [20 x i8] c"Le nombre lu est %d\00"
@.fmt1 = global [3 x i8] c"%d\00"
define void @main()
{
	%x = alloca i32
	call i32 (i8*, ...) @scanf(i8* getelementptr inbounds ([3 x i8], [3 x i8 ]* @.fmt1 , i64 0, i64 0) , i32 * %x)
	%tmp1 = load i32, i32* %x
	call i32 (i8*, ...) @printf(i8* getelementptr inbounds ([20 x i8], [20 x i8 ]* @.fmt2 , i64 0, i64 0) , i32 %tmp1)
	ret void
}

